What the Package Does (One Line, Title Case) • tidychangepoint
…
Various methods are available for tidycpt objects. For example, as.ts() returns the original data as ts object, and changepoints() returns the set of changepoint indices.

changepoints(x)

## [1] 547 822 972

Retrieving information using the broom interface

tidychangepoint follows the design interface of the broom package. Therefore, augment(), tidy() and glance() methods exists for tidycpt objects.

augment() returns a tsibble that is grouped according to the regions defined by the changepoint set.

augment(x)

## # A tsibble: 1,096 x 3 [1]
## # Groups:    region [4]
##    index     y region 
##    <int> <dbl> <fct>  
##  1     1  35.5 [0,547)
##  2     2  29.0 [0,547)
##  3     3  35.6 [0,547)
##  4     4  33.0 [0,547)
##  5     5  29.5 [0,547)
##  6     6  25.4 [0,547)
##  7     7  28.8 [0,547)
##  8     8  50.3 [0,547)
##  9     9  24.9 [0,547)
## 10    10  58.9 [0,547)
## # ℹ 1,086 more rows
…
