Convert a segmenter to a model object — as.model • tidychangepoint
…
#> [331]  729  730  733  736  738  740  743  744  746  747  749  750  752  753  755
#> [346]  757  758  760  765  767  768  769  772  773  775  777  779  781  782  784
#> [361]  785  787  788  792  795  798  799  800  802  803  804  805  810  811  815
#> [376]  817  821  823  825  826  830  836  839  841  844  846  849  850  852  853
#> [391]  854  855  856  858  860  862  863  865  866  871  877  880  883  884  885
#> [406]  888  889  892  897  898  901  906  911  913  914  917  919  920  921  923
#> [421]  926  927  928  930  932  933  934  936  937  940  942  943  944  946  951
#> [436]  952  953  955  956  964  966  967  969  972  973  977  978  981  982  983
#> [451]  985  989  990  993  994  998  999 1000 1001 1002 1003 1005 1007 1008 1009
#> [466] 1012 1013 1015 1018 1022 1026 1027 1028 1030 1031 1035 1037 1038 1040 1042
#> [481] 1047 1050 1051 1053 1057 1059 1062 1063 1064 1065 1066 1068 1070 1072 1073
#> [496] 1080 1082 1091 1094 1095
#> 
#> $region_params
#> # A tibble: 501 × 2
#>    region  param_mu
#>    <chr>      <dbl>
#>  1 [0,2)       35.5
#>  2 [2,3)       29.0
#>  3 [3,6)       32.7
#>  4 [6,8)       27.1
#>  5 [8,10)      37.6
#>  6 [10,11)     58.9
#>  7 [11,12)     30.4
#>  8 [12,13)     33.7
#>  9 [13,14)     32.6
#> 10 [14,16)     44.0
#> # ℹ 491 more rows
…
