Compatibility layer for GA — as.model.default • tidychangepoint
…
#> [316]  708  710  713  721  727  730  731  732  733  737  739  740  741  742  745
#> [331]  746  747  748  756  758  760  764  766  772  773  774  778  780  781  782
#> [346]  783  786  787  788  791  792  793  794  797  798  801  804  805  808  811
#> [361]  812  813  818  820  822  823  824  826  827  828  829  831  833  839  840
#> [376]  843  844  846  849  854  856  861  862  865  875  876  878  880  881  885
#> [391]  893  896  897  898  901  903  904  907  908  910  912  913  915  917  918
#> [406]  919  920  922  923  926  927  929  931  932  933  934  942  944  945  946
#> [421]  947  948  950  952  954  955  956  957  959  960  961  972  973  975  976
#> [436]  977  978  980  981  992  993  996  998 1000 1005 1006 1013 1018 1020 1024
#> [451] 1025 1026 1027 1029 1032 1035 1037 1038 1042 1044 1045 1046 1048 1052 1053
#> [466] 1056 1057 1060 1063 1064 1065 1070 1074 1077 1080 1081 1083 1084 1087 1088
#> [481] 1090 1091 1093 1094
#> 
#> $region_params
#> # A tibble: 486 × 2
#>    region  param_mu
#>    <chr>      <dbl>
#>  1 [0,1)      NaN  
#>  2 [1,2)       35.5
#>  3 [2,6)       31.8
#>  4 [6,7)       25.4
#>  5 [7,8)       28.8
#>  6 [8,10)      37.6
#>  7 [10,11)     58.9
#>  8 [11,13)     32.0
#>  9 [13,15)     37.7
#> 10 [15,16)     45.2
#> # ℹ 476 more rows
…
#> method: wbs
#> Seeding initial population with probability: 0.00456204379562044
as.model(cpt$segmenter)$model_params
#> threshold 
#>        80 
cpts <- segment(DataCPSim, method = "ga", maxiter = 10)
#> method: ga
class(cpts)
#> [1] "tidycpt"
y <- augment(cpts)
class(y)
#> [1] "grouped_ts" "grouped_df" "tbl_ts"     "tbl_df"     "tbl"       
#> [6] "data.frame"
y
#> # A tsibble: 1,096 x 5 [1]
#> # Groups:    region [501]
#>    index     y region .fitted  .resid
#>    <int> <dbl> <fct>    <dbl>   <dbl>
#>  1     1  35.5 [0,3)     32.3   3.25 
#>  2     2  29.0 [0,3)     31.3  -2.30 
#>  3     3  35.6 [3,4)     36.6  -0.953
#>  4     4  33.0 [4,7)     29.3   3.68 
#>  5     5  29.5 [4,7)     28.2   1.30 
#>  6     6  25.4 [4,7)     29.2  -3.84 
#>  7     7  28.8 [7,8)     30.0  -1.14 
#>  8     8  50.3 [8,9)     50.3   0    
#>  9     9  24.9 [9,13)    37.0 -12.0  
#> 10    10  58.9 [9,13)    40.5  18.4  
#> # ℹ 1,086 more rows
tidy(cpts)
#> # A tibble: 500 × 9
#>    region  num_obs   min   max  mean    sd begin   end param_mu
#>    <chr>     <int> <dbl> <dbl> <dbl> <dbl> <dbl> <dbl>    <dbl>
#>  1 [3,4)         1  35.6  35.6  35.6 NA        3     4     35.6
#>  2 [4,7)         3  25.4  33.0  29.3  3.79     4     7     29.3
#>  3 [7,8)         1  28.8  28.8  28.8 NA        7     8     28.8
#>  4 [8,9)         1  50.3  50.3  50.3 NA        8     9     50.3
#>  5 [9,13)        4  24.9  58.9  37.0 15.1      9    13     37.0
#>  6 [13,14)       1  32.6  32.6  32.6 NA       13    14     32.6
#>  7 [14,15)       1  42.8  42.8  42.8 NA       14    15     42.8
#>  8 [15,25)      10  20.0  68.5  38.9 15.3     15    25     38.9
#>  9 [25,27)       2  23.8  27.8  25.8  2.85    25    27     25.8
#> 10 [27,28)       1  42.0  42.0  42.0 NA       27    28     42.0
#> # ℹ 490 more rows
…
