Methods for mod_cpt objects — mod_cpt-generics • tidychangepoint
…
#> [1046]  44.81358450 106.39126095  36.62803211 157.87016886  72.02495660
#> [1051]  50.88119421  67.50603277 106.35592779 104.00648805 136.05354151
#> [1056]   5.00642032  79.48945204 141.05645784  59.90628362 119.86479656
#> [1061]  78.69754218  43.54359926  46.41925233 216.36622708  64.49901556
#> [1066] 209.50840908  60.31916524 115.20109429  79.09308622 156.03683379
#> [1071]  64.58406980  37.83111238  77.29273754  52.76775460 120.92427573
#> [1076]  66.52504365  78.83748829  90.13366197  74.68886895  56.87940024
#> [1081] 107.00439830  57.92977853  31.61699079  36.21627468  68.49503669
#> [1086]   9.00571116 144.17274296  50.38590801 138.34886486 114.14081154
#> [1091]  79.64708283  87.27024637  88.01765363   8.60502728 102.34985316
#> [1096]  58.29734714
changepoints(cpts)
#> [1] 365
augment(cpts)
#> # A tsibble: 1,096 x 5 [1]
#> # Groups:    region [2]
#>    index     y region  .fitted  .resid
#>    <int> <dbl> <fct>     <dbl>   <dbl>
#>  1     1  35.5 [0,365)    35.8  -0.246
#>  2     2  29.0 [0,365)    35.8  -6.75 
#>  3     3  35.6 [0,365)    35.8  -0.120
#>  4     4  33.0 [0,365)    35.8  -2.77 
#>  5     5  29.5 [0,365)    35.8  -6.22 
#>  6     6  25.4 [0,365)    35.8 -10.3  
#>  7     7  28.8 [0,365)    35.8  -6.93 
#>  8     8  50.3 [0,365)    35.8  14.6  
#>  9     9  24.9 [0,365)    35.8 -10.8  
#> 10    10  58.9 [0,365)    35.8  23.1  
#> # ℹ 1,086 more rows
…
