Segment a time series using a variety of algorithms — segment • tidychangepoint
…
null: The default. Uses no changepoints.
The segmenter is of class seg_cpt()`.

    See also

    changepoint::cpt.meanvar(), wbs::wbs(), GA::ga(),
segment_ga()

    Examples

mod_null <- segment(DataCPSim)
augment(mod_null)
#> # A tsibble: 1,096 x 5 [1]
#> # Groups:    region [1]
#>    index     y region      .fitted .resid
#>    <int> <dbl> <fct>         <dbl>  <dbl>
#>  1     1  35.5 [0,1.1e+03]    63.2 -27.7 
#>  2     2  29.0 [0,1.1e+03]    63.2 -34.2 
#>  3     3  35.6 [0,1.1e+03]    63.2 -27.5 
#>  4     4  33.0 [0,1.1e+03]    63.2 -30.2 
#>  5     5  29.5 [0,1.1e+03]    63.2 -33.6 
#>  6     6  25.4 [0,1.1e+03]    63.2 -37.8 
#>  7     7  28.8 [0,1.1e+03]    63.2 -34.3 
#>  8     8  50.3 [0,1.1e+03]    63.2 -12.9 
#>  9     9  24.9 [0,1.1e+03]    63.2 -38.2 
#> 10    10  58.9 [0,1.1e+03]    63.2  -4.28
#> # ℹ 1,086 more rows
…
