tidychangepoint • tidychangepoint
…
changepoints(x)
#> [1] 547 822 972

Retrieving information using the broom interface

tidychangepoint follows the design interface of the
broom package. Therefore, augment(),
tidy() and glance() methods exists for
tidycpt objects.

augment() returns a tsibble that is
grouped according to the regions defined by the changepoint set.

augment(x)
#> # A tsibble: 1,096 x 5 [1]
#> # Groups:    region [4]
#>    index     y region  .fitted  .resid
#>    <int> <dbl> <fct>     <dbl>   <dbl>
#>  1     1  35.5 [0,547)    35.3   0.232
#>  2     2  29.0 [0,547)    35.3  -6.27 
#>  3     3  35.6 [0,547)    35.3   0.357
#>  4     4  33.0 [0,547)    35.3  -2.29 
#>  5     5  29.5 [0,547)    35.3  -5.74 
#>  6     6  25.4 [0,547)    35.3  -9.87 
#>  7     7  28.8 [0,547)    35.3  -6.45 
#>  8     8  50.3 [0,547)    35.3  15.0  
#>  9     9  24.9 [0,547)    35.3 -10.3  
#> 10    10  58.9 [0,547)    35.3  23.6  
#> # ℹ 1,086 more rows
…
