…
- [`augment()`](https://generics.r-lib.org/reference/augment.html)
  returns a `tsibble` that is grouped according to the regions defined
  by the changepoint set.

``` r
augment(x)
#> Registered S3 method overwritten by 'tsibble':
#>   method               from 
#>   as_tibble.grouped_df dplyr
#> # A tsibble: 1,096 x 5 [1]
#> # Groups:    region [4]
#>    index     y region  .fitted  .resid
#>    <int> <dbl> <fct>     <dbl>   <dbl>
#>  1     1  35.5 [1,547)    35.3   0.232
#>  2     2  29.0 [1,547)    35.3  -6.27 
#>  3     3  35.6 [1,547)    35.3   0.357
#>  4     4  33.0 [1,547)    35.3  -2.29 
#>  5     5  29.5 [1,547)    35.3  -5.74 
#>  6     6  25.4 [1,547)    35.3  -9.87 
#>  7     7  28.8 [1,547)    35.3  -6.45 
#>  8     8  50.3 [1,547)    35.3  15.0  
#>  9     9  24.9 [1,547)    35.3 -10.3  
#> 10    10  58.9 [1,547)    35.3  23.6  
#> # ℹ 1,086 more rows
```
…
